F0000MTH.CSV

Record Length,1.02E+03,,0,-68.9691
Sample Interval,4.93E+00,,4.93213,-54.5691
Trigger Point,0.00E+00,,9.86427,-58.9691
,,,14.7964,-79.7691
,,,19.72854,-80.9691
,,,24.66067,-71.3691
Source,MATH,,29.5928,-69.3691
Vertical Units,dB,,34.52494,-72.9691
Vertical Scale,1.00E+01,,39.45707,-74.5691
Vertical Offset,0.00E+00,,44.3892,-77.3691
Horizontal Units,Hz,,49.32134,-65.7691
Horizontal Scale,5.05E+02,,54.25347,-59.3691
Pt Fmt,Y,,59.18561,-56.9691
Yzero,-4.10E+01,,64.11774,-61.7691
Probe Atten,1.00E+01,,69.04987,-72.1691
Firmware Version,FV:v6.08,,73.98201,-75.7691
,,,78.91414,-69.7691
,,,83.84627,-62.5691
,,,88.7784,-62.9691
,,,93.71053,-72.9691
,,,98.64266,-73.7691
,,,103.57479,-75.7691
,,,108.50692,-72.9691
,,,113.43905,-71.7691
,,,118.37118,-79.7691
,,,123.30331,-80.9691
,,,128.23544,-72.1691
,,,133.16757,-74.5691
,,,138.0997,-79.7691
,,,143.03183,-75.7691
,,,147.96396,-80.9691
,,,152.89609,-75.7691
,,,157.82822,-74.9691
,,,162.76035,-73.7691
,,,167.69248,-77.3691
,,,172.62461,-72.9691
,,,177.55674,-73.7691
,,,182.48887,-79.7691
,,,187.421,-76.9691
,,,192.35313,-74.5691
,,,197.28526,-76.9691
,,,202.21739,-80.9691
,,,207.14952,-79.7691
,,,212.08165,-74.5691
,,,217.01378,-80.9691
,,,221.94591,-80.9691
,,,226.87804,-74.5691
,,,231.81017,-70.9691
,,,236.7423,-72.9691
,,,241.67443,-71.7691
,,,246.60656,-80.9691
,,,251.53869,-80.9691
,,,256.47082,-79.7691
,,,261.40295,-80.9691
,,,266.33508,-75.7691
,,,271.26721,-75.7691
,,,276.19934,-80.9691
,,,281.13147,-80.9691
,,,286.0636,-77.3691
,,,290.99573,-72.9691
,,,295.92786,-80.9691
,,,300.85999,-77.3691
,,,305.79212,-71.7691
,,,310.72425,-71.7691
,,,315.65638,-80.9691
,,,320.58851,-77.3691
,,,325.52064,-76.9691
,,,330.45277,-80.9691
,,,335.3849,-79.7691
,,,340.31703,-80.9691
,,,345.24916,-79.7691
,,,350.18129,-76.9691
,,,355.11342,-80.9691
,,,360.04555,-77.3691
,,,364.97768,-74.5691
,,,369.90981,-73.7691
,,,374.84194,-75.7691
,,,379.77407,-73.7691
,,,384.7062,-80.9691
,,,389.63833,-76.9691
,,,394.57046,-72.9691
,,,399.50259,-69.7691
,,,404.43472,-70.9691
,,,409.36685,-74.5691
,,,414.29898,-79.7691
,,,419.23111,-77.7691
,,,424.16324,-76.9691
,,,429.09537,-71.3691
,,,434.0275,-70.5691
,,,438.95963,-71.7691
,,,443.89176,-80.9691
,,,448.82389,-79.7691
,,,453.75602,-74.5691
,,,458.68815,-77.3691
,,,463.62028,-79.7691
,,,468.55241,-71.7691
,,,473.48454,-70.9691
,,,478.41667,-72.1691
,,,483.3488,-74.5691
,,,488.28093,-72.9691
,,,493.21306,-71.3691
,,,498.14519,-76.9691
,,,503.07732,-80.9691
,,,508.00945,-75.7691
,,,512.94158,-74.9691
,,,517.87371,-80.9691
,,,522.80584,-72.1691
,,,527.73797,-69.7691
,,,532.6701,-70.9691
,,,537.60223,-71.7691
,,,542.53436,-74.5691
,,,547.46649,-80.9691
,,,552.39862,-76.9691
,,,557.33075,-75.7691
,,,562.26288,-73.7691
,,,567.19501,-75.7691
,,,572.12714,-80.9691
,,,577.05927,-80.9691
,,,581.9914,-77.3691
,,,586.92353,-80.9691
,,,591.85566,-77.3691
,,,596.78779,-80.9691
,,,601.71992,-80.9691
,,,606.65205,-80.9691
,,,611.58418,-77.7691
,,,616.51631,-72.9691
,,,621.44844,-74.5691
,,,626.38057,-80.9691
,,,631.3127,-77.7691
,,,636.24483,-80.9691
,,,641.17696,-79.7691
,,,646.10909,-79.7691
,,,651.04122,-79.7691
,,,655.97335,-79.7691
,,,660.90548,-80.9691
,,,665.83761,-76.9691
,,,670.76974,-74.9691
,,,675.70187,-80.9691
,,,680.634,-80.9691
,,,685.56613,-80.9691
,,,690.49826,-80.9691
,,,695.43039,-76.9691
,,,700.36252,-72.9691
,,,705.29465,-68.9691
,,,710.22678,-71.3691
,,,715.15891,-72.1691
,,,720.09104,-72.9691
,,,725.02317,-72.9691
,,,729.9553,-74.5691
,,,734.88743,-72.9691
,,,739.81956,-72.9691
,,,744.75169,-80.9691
,,,749.68382,-73.7691
,,,754.61595,-69.7691
,,,759.54808,-74.5691
,,,764.48021,-77.3691
,,,769.41234,-80.9691
,,,774.34447,-77.3691
,,,779.2766,-74.5691
,,,784.20873,-80.9691
,,,789.14086,-76.9691
,,,794.07299,-70.9691
,,,799.00512,-70.9691
,,,803.93725,-74.5691
,,,808.86938,-69.7691
,,,813.80151,-70.5691
,,,818.73364,-74.5691
,,,823.66577,-80.9691
,,,828.5979,-75.7691
,,,833.53003,-72.9691
,,,838.46216,-80.9691
,,,843.39429,-79.7691
,,,848.32642,-77.3691
,,,853.25855,-77.7691
,,,858.19068,-76.9691
,,,863.12281,-80.9691
,,,868.05494,-74.5691
,,,872.98707,-76.9691
,,,877.9192,-80.9691
,,,882.85133,-74.5691
,,,887.78346,-72.9691
,,,892.71559,-75.7691
,,,897.64772,-74.5691
,,,902.57985,-79.7691
,,,907.51198,-74.5691
,,,912.44411,-65.3691
,,,917.37624,-56.1691
,,,922.30837,-59.3691
,,,927.2405,-76.9691
,,,932.17263,-79.7691
,,,937.10476,-80.9691
,,,942.03689,-69.7691
,,,946.96902,-69.7691
,,,951.90115,-73.7691
,,,956.83328,-80.9691
,,,961.76541,-80.9691
,,,966.69754,-79.7691
,,,971.62967,-72.9691
,,,976.5618,-71.3691
,,,981.49393,-72.9691
,,,986.42606,-72.9691
,,,991.35819,-79.7691
,,,996.29032,-80.9691
,,,1001.22245,-77.7691
,,,1006.15458,-75.7691
,,,1011.08671,-73.7691
,,,1016.01884,-79.7691
,,,1020.95097,-80.9691
,,,1025.8831,-74.5691
,,,1030.81523,-74.5691
,,,1035.74736,-75.7691
,,,1040.67949,-72.1691
,,,1045.61162,-72.1691
,,,1050.54375,-77.3691
,,,1055.47588,-75.7691
,,,1060.40801,-77.7691
,,,1065.34014,-76.9691
,,,1070.27227,-72.9691
,,,1075.2044,-76.9691
,,,1080.13653,-80.9691
,,,1085.06866,-72.9691
,,,1090.00079,-68.9691
,,,1094.93292,-68.9691
,,,1099.86505,-69.7691
,,,1104.79718,-75.7691
,,,1109.72931,-72.9691
,,,1114.66144,-71.3691
,,,1119.59357,-74.5691
,,,1124.5257,-80.9691
,,,1129.45783,-76.9691
,,,1134.38996,-75.7691
,,,1139.32209,-74.5691
,,,1144.25422,-74.5691
,,,1149.18635,-77.3691
,,,1154.11848,-72.9691
,,,1159.05061,-70.1691
,,,1163.98274,-69.7691
,,,1168.91487,-77.3691
,,,1173.847,-79.7691
,,,1178.77913,-80.9691
,,,1183.71126,-72.1691
,,,1188.64339,-69.7691
,,,1193.57552,-72.9691
,,,1198.50765,-80.9691
,,,1203.43978,-79.7691
,,,1208.37191,-80.9691
,,,1213.30404,-72.9691
,,,1218.23617,-74.9691
,,,1223.1683,-75.7691
,,,1228.10043,-76.9691
,,,1233.03256,-80.9691
,,,1237.96469,-80.9691
,,,1242.89682,-80.9691
,,,1247.82895,-80.9691
,,,1252.76108,-72.9691
,,,1257.69321,-74.5691
,,,1262.62534,-80.9691
,,,1267.55747,-74.9691
,,,1272.4896,-71.7691
,,,1277.42173,-71.7691
,,,1282.35386,-70.9691
,,,1287.28599,-73.7691
,,,1292.21812,-76.9691
,,,1297.15025,-80.9691
,,,1302.08238,-80.9691
,,,1307.01451,-80.9691
,,,1311.94664,-80.9691
,,,1316.87877,-80.9691
,,,1321.8109,-75.7691
,,,1326.74303,-79.7691
,,,1331.67516,-76.9691
,,,1336.60729,-74.9691
,,,1341.53942,-80.9691
,,,1346.47155,-79.7691
,,,1351.40368,-76.9691
,,,1356.33581,-73.7691
,,,1361.26794,-71.7691
,,,1366.20007,-71.7691
,,,1371.1322,-74.5691
,,,1376.06433,-74.5691
,,,1380.99646,-74.5691
,,,1385.92859,-75.7691
,,,1390.86072,-80.9691
,,,1395.79285,-80.9691
,,,1400.72498,-80.9691
,,,1405.65711,-74.5691
,,,1410.58924,-69.7691
,,,1415.52137,-72.1691
,,,1420.4535,-80.9691
,,,1425.38563,-76.9691
,,,1430.31776,-74.5691
,,,1435.24989,-69.7691
,,,1440.18202,-70.5691
,,,1445.11415,-75.7691
,,,1450.04628,-73.7691
,,,1454.97841,-79.7691
,,,1459.91054,-80.9691
,,,1464.84267,-74.5691
,,,1469.7748,-77.3691
,,,1474.70693,-76.9691
,,,1479.63906,-74.9691
,,,1484.57119,-77.3691
,,,1489.50332,-70.9691
,,,1494.43545,-69.7691
,,,1499.36758,-71.7691
,,,1504.29971,-75.7691
,,,1509.23184,-74.5691
,,,1514.16397,-69.3691
,,,1519.0961,-68.9691
,,,1524.02823,-77.3691
,,,1528.96036,-80.9691
,,,1533.89249,-77.3691
,,,1538.82462,-72.1691
,,,1543.75675,-74.5691
,,,1548.68888,-73.7691
,,,1553.62101,-79.7691
,,,1558.55314,-80.9691
,,,1563.48527,-76.9691
,,,1568.4174,-77.7691
,,,1573.34953,-79.7691
,,,1578.28166,-80.9691
,,,1583.21379,-74.5691
,,,1588.14592,-74.9691
,,,1593.07805,-79.7691
,,,1598.01018,-76.9691
,,,1602.94231,-73.7691
,,,1607.87444,-71.3691
,,,1612.80657,-70.9691
,,,1617.7387,-72.1691
,,,1622.67083,-70.9691
,,,1627.60296,-77.7691
,,,1632.53509,-80.9691
,,,1637.46722,-77.3691
,,,1642.39935,-73.7691
,,,1647.33148,-75.7691
,,,1652.26361,-80.9691
,,,1657.19574,-80.9691
,,,1662.12787,-80.9691
,,,1667.06,-75.7691
,,,1671.99213,-75.7691
,,,1676.92426,-75.7691
,,,1681.85639,-72.1691
,,,1686.78852,-76.9691
,,,1691.72065,-73.7691
,,,1696.65278,-72.9691
,,,1701.58491,-77.7691
,,,1706.51704,-80.9691
,,,1711.44917,-76.9691
,,,1716.3813,-74.5691
,,,1721.31343,-72.9691
,,,1726.24556,-80.9691
,,,1731.17769,-80.9691
,,,1736.10982,-75.7691
,,,1741.04195,-79.7691
,,,1745.97408,-74.5691
,,,1750.90621,-75.7691
,,,1755.83834,-80.9691
,,,1760.77047,-80.9691
,,,1765.7026,-80.9691
,,,1770.63473,-74.9691
,,,1775.56686,-73.7691
,,,1780.49899,-73.7691
,,,1785.43112,-80.9691
,,,1790.36325,-74.9691
,,,1795.29538,-79.7691
,,,1800.22751,-80.9691
,,,1805.15964,-75.7691
,,,1810.09177,-79.7691
,,,1815.0239,-80.9691
,,,1819.95603,-72.1691
,,,1824.88816,-69.7691
,,,1829.82029,-69.7691
,,,1834.75242,-61.7691
,,,1839.68455,-63.3691
,,,1844.61668,-74.5691
,,,1849.54881,-72.1691
,,,1854.48094,-73.7691
,,,1859.41307,-71.7691
,,,1864.3452,-69.7691
,,,1869.27733,-72.9691
,,,1874.20946,-74.5691
,,,1879.14159,-77.3691
,,,1884.07372,-80.9691
,,,1889.00585,-73.7691
,,,1893.93798,-76.9691
,,,1898.87011,-77.3691
,,,1903.80224,-74.5691
,,,1908.73437,-80.9691
,,,1913.6665,-74.5691
,,,1918.59863,-72.9691
,,,1923.53076,-72.9691
,,,1928.46289,-77.7691
,,,1933.39502,-72.1691
,,,1938.32715,-75.7691
,,,1943.25928,-80.9691
,,,1948.19141,-77.7691
,,,1953.12354,-72.1691
,,,1958.05567,-73.7691
,,,1962.9878,-75.7691
,,,1967.91993,-79.7691
,,,1972.85206,-74.5691
,,,1977.78419,-70.5691
,,,1982.71632,-76.9691
,,,1987.64845,-76.9691
,,,1992.58058,-77.7691
,,,1997.51271,-80.9691
,,,2002.44484,-74.5691
,,,2007.37697,-80.9691
,,,2012.3091,-80.9691
,,,2017.24123,-79.7691
,,,2022.17336,-80.9691
,,,2027.10549,-74.9691
,,,2032.03762,-71.7691
,,,2036.96975,-79.7691
,,,2041.90188,-77.3691
,,,2046.83401,-74.9691
,,,2051.76614,-80.9691
,,,2056.69827,-79.7691
,,,2061.6304,-79.7691
,,,2066.56253,-79.7691
,,,2071.49466,-80.9691
,,,2076.42679,-76.9691
,,,2081.35892,-72.1691
,,,2086.29105,-75.7691
,,,2091.22318,-73.7691
,,,2096.15531,-71.7691
,,,2101.08744,-74.9691
,,,2106.01957,-74.5691
,,,2110.9517,-79.7691
,,,2115.88383,-80.9691
,,,2120.81596,-75.7691
,,,2125.74809,-80.9691
,,,2130.68022,-80.9691
,,,2135.61235,-80.9691
,,,2140.54448,-77.7691
,,,2145.47661,-80.9691
,,,2150.40874,-72.9691
,,,2155.34087,-77.3691
,,,2160.273,-72.1691
,,,2165.20513,-77.3691
,,,2170.13726,-75.7691
,,,2175.06939,-72.9691
,,,2180.00152,-76.9691
,,,2184.93365,-79.7691
,,,2189.86578,-80.9691
,,,2194.79791,-77.7691
,,,2199.73004,-72.1691
,,,2204.66217,-72.9691
,,,2209.5943,-74.5691
,,,2214.52643,-77.3691
,,,2219.45856,-74.5691
,,,2224.39069,-77.3691
,,,2229.32282,-80.9691
,,,2234.25495,-70.9691
,,,2239.18708,-75.7691
,,,2244.11921,-74.5691
,,,2249.05134,-70.5691
,,,2253.98347,-76.9691
,,,2258.9156,-80.9691
,,,2263.84773,-77.7691
,,,2268.77986,-80.9691
,,,2273.71199,-73.7691
,,,2278.64412,-72.9691
,,,2283.57625,-80.9691
,,,2288.50838,-74.5691
,,,2293.44051,-69.7691
,,,2298.37264,-75.7691
,,,2303.30477,-79.7691
,,,2308.2369,-79.7691
,,,2313.16903,-72.1691
,,,2318.10116,-75.7691
,,,2323.03329,-61.7691
,,,2327.96542,-42.1691
,,,2332.89755,-31.3691
,,,2337.82968,-33.3691
,,,2342.76181,-51.7691
,,,2347.69394,-65.3691
,,,2352.62607,-80.9691
,,,2357.5582,-72.9691
,,,2362.49033,-80.9691
,,,2367.42246,-79.7691
,,,2372.35459,-76.9691
,,,2377.28672,-77.7691
,,,2382.21885,-80.9691
,,,2387.15098,-80.9691
,,,2392.08311,-79.7691
,,,2397.01524,-74.9691
,,,2401.94737,-70.5691
,,,2406.8795,-79.7691
,,,2411.81163,-70.1691
,,,2416.74376,-74.9691
,,,2421.67589,-79.7691
,,,2426.60802,-75.7691
,,,2431.54015,-74.5691
,,,2436.47228,-80.9691
,,,2441.40441,-70.9691
,,,2446.33654,-75.7691
,,,2451.26867,-79.7691
,,,2456.2008,-74.5691
,,,2461.13293,-74.5691
,,,2466.06506,-77.3691
,,,2470.99719,-73.7691
,,,2475.92932,-72.9691
,,,2480.86145,-71.7691
,,,2485.79358,-69.7691
,,,2490.72571,-76.9691
,,,2495.65784,-80.9691
,,,2500.58997,-76.9691
,,,2505.5221,-73.7691
,,,2510.45423,-79.7691
,,,2515.38636,-74.9691
,,,2520.31849,-80.9691
,,,2525.25062,-70.9691
,,,2530.18275,-72.9691
,,,2535.11488,-76.9691
,,,2540.04701,-79.7691
,,,2544.97914,-80.9691
,,,2549.91127,-79.7691
,,,2554.8434,-79.7691
,,,2559.77553,-77.7691
,,,2564.70766,-74.5691
,,,2569.63979,-79.7691
,,,2574.57192,-74.5691
,,,2579.50405,-70.9691
,,,2584.43618,-74.5691
,,,2589.36831,-68.1691
,,,2594.30044,-67.7691
,,,2599.23257,-72.1691
,,,2604.1647,-73.7691
,,,2609.09683,-74.5691
,,,2614.02896,-79.7691
,,,2618.96109,-77.7691
,,,2623.89322,-80.9691
,,,2628.82535,-80.9691
,,,2633.75748,-80.9691
,,,2638.68961,-77.3691
,,,2643.62174,-79.7691
,,,2648.55387,-76.9691
,,,2653.486,-72.1691
,,,2658.41813,-74.5691
,,,2663.35026,-71.3691
,,,2668.28239,-69.7691
,,,2673.21452,-80.9691
,,,2678.14665,-77.3691
,,,2683.07878,-75.7691
,,,2688.01091,-77.3691
,,,2692.94304,-74.9691
,,,2697.87517,-71.3691
,,,2702.8073,-72.9691
,,,2707.73943,-72.9691
,,,2712.67156,-72.1691
,,,2717.60369,-72.9691
,,,2722.53582,-74.5691
,,,2727.46795,-80.9691
,,,2732.40008,-77.3691
,,,2737.33221,-80.9691
,,,2742.26434,-80.9691
,,,2747.19647,-80.9691
,,,2752.1286,-74.9691
,,,2757.06073,-74.9691
,,,2761.99286,-76.9691
,,,2766.92499,-70.9691
,,,2771.85712,-70.5691
,,,2776.78925,-74.5691
,,,2781.72138,-80.9691
,,,2786.65351,-80.9691
,,,2791.58564,-80.9691
,,,2796.51777,-77.3691
,,,2801.4499,-80.9691
,,,2806.38203,-75.7691
,,,2811.31416,-72.9691
,,,2816.24629,-74.5691
,,,2821.17842,-80.9691
,,,2826.11055,-72.9691
,,,2831.04268,-80.9691
,,,2835.97481,-73.7691
,,,2840.90694,-72.9691
,,,2845.83907,-72.9691
,,,2850.7712,-72.9691
,,,2855.70333,-74.9691
,,,2860.63546,-70.9691
,,,2865.56759,-72.1691
,,,2870.49972,-76.9691
,,,2875.43185,-80.9691
,,,2880.36398,-80.9691
,,,2885.29611,-75.7691
,,,2890.22824,-75.7691
,,,2895.16037,-70.5691
,,,2900.0925,-72.9691
,,,2905.02463,-74.5691
,,,2909.95676,-79.7691
,,,2914.88889,-79.7691
,,,2919.82102,-72.9691
,,,2924.75315,-72.9691
,,,2929.68528,-74.5691
,,,2934.61741,-74.5691
,,,2939.54954,-73.7691
,,,2944.48167,-72.9691
,,,2949.4138,-68.9691
,,,2954.34593,-72.9691
,,,2959.27806,-80.9691
,,,2964.21019,-80.9691
,,,2969.14232,-79.7691
,,,2974.07445,-76.9691
,,,2979.00658,-80.9691
,,,2983.93871,-79.7691
,,,2988.87084,-74.9691
,,,2993.80297,-73.7691
,,,2998.7351,-79.7691
,,,3003.66723,-75.7691
,,,3008.59936,-72.1691
,,,3013.53149,-74.9691
,,,3018.46362,-76.9691
,,,3023.39575,-72.9691
,,,3028.32788,-72.1691
,,,3033.26001,-74.5691
,,,3038.19214,-77.3691
,,,3043.12427,-80.9691
,,,3048.0564,-80.9691
,,,3052.98853,-76.9691
,,,3057.92066,-76.9691
,,,3062.85279,-72.9691
,,,3067.78492,-79.7691
,,,3072.71705,-80.9691
,,,3077.64918,-79.7691
,,,3082.58131,-75.7691
,,,3087.51344,-75.7691
,,,3092.44557,-74.5691
,,,3097.3777,-73.7691
,,,3102.30983,-74.5691
,,,3107.24196,-72.9691
,,,3112.17409,-77.3691
,,,3117.10622,-73.7691
,,,3122.03835,-79.7691
,,,3126.97048,-80.9691
,,,3131.90261,-77.3691
,,,3136.83474,-72.1691
,,,3141.76687,-77.3691
,,,3146.699,-76.9691
,,,3151.63113,-80.9691
,,,3156.56326,-79.7691
,,,3161.49539,-71.3691
,,,3166.42752,-71.7691
,,,3171.35965,-80.9691
,,,3176.29178,-80.9691
,,,3181.22391,-79.7691
,,,3186.15604,-79.7691
,,,3191.08817,-76.9691
,,,3196.0203,-79.7691
,,,3200.95243,-73.7691
,,,3205.88456,-77.7691
,,,3210.81669,-71.3691
,,,3215.74882,-70.9691
,,,3220.68095,-80.9691
,,,3225.61308,-74.9691
,,,3230.54521,-79.7691
,,,3235.47734,-80.9691
,,,3240.40947,-80.9691
,,,3245.3416,-80.9691
,,,3250.27373,-80.9691
,,,3255.20586,-77.3691
,,,3260.13799,-77.3691
,,,3265.07012,-79.7691
,,,3270.00225,-72.9691
,,,3274.93438,-74.9691
,,,3279.86651,-71.7691
,,,3284.79864,-72.9691
,,,3289.73077,-75.7691
,,,3294.6629,-77.3691
,,,3299.59503,-71.7691
,,,3304.52716,-69.3691
,,,3309.45929,-72.9691
,,,3314.39142,-80.9691
,,,3319.32355,-77.7691
,,,3324.25568,-72.9691
,,,3329.18781,-73.7691
,,,3334.11994,-76.9691
,,,3339.05207,-71.7691
,,,3343.9842,-70.9691
,,,3348.91633,-72.9691
,,,3353.84846,-76.9691
,,,3358.78059,-75.7691
,,,3363.71272,-76.9691
,,,3368.64485,-80.9691
,,,3373.57698,-74.5691
,,,3378.50911,-72.9691
,,,3383.44124,-76.9691
,,,3388.37337,-77.7691
,,,3393.3055,-72.1691
,,,3398.23763,-71.7691
,,,3403.16976,-76.9691
,,,3408.10189,-80.9691
,,,3413.03402,-80.9691
,,,3417.96615,-76.9691
,,,3422.89828,-79.7691
,,,3427.83041,-80.9691
,,,3432.76254,-76.9691
,,,3437.69467,-77.7691
,,,3442.6268,-79.7691
,,,3447.55893,-79.7691
,,,3452.49106,-73.7691
,,,3457.42319,-74.5691
,,,3462.35532,-75.7691
,,,3467.28745,-72.9691
,,,3472.21958,-70.9691
,,,3477.15171,-75.7691
,,,3482.08384,-74.5691
,,,3487.01597,-80.9691
,,,3491.9481,-80.9691
,,,3496.88023,-80.9691
,,,3501.81236,-80.9691
,,,3506.74449,-70.1691
,,,3511.67662,-68.5691
,,,3516.60875,-69.7691
,,,3521.54088,-71.3691
,,,3526.47301,-70.9691
,,,3531.40514,-74.9691
,,,3536.33727,-79.7691
,,,3541.2694,-80.9691
,,,3546.20153,-80.9691
,,,3551.13366,-80.9691
,,,3556.06579,-80.9691
,,,3560.99792,-76.9691
,,,3565.93005,-72.9691
,,,3570.86218,-76.9691
,,,3575.79431,-74.9691
,,,3580.72644,-71.7691
,,,3585.65857,-77.3691
,,,3590.5907,-75.7691
,,,3595.52283,-75.7691
,,,3600.45496,-74.5691
,,,3605.38709,-73.7691
,,,3610.31922,-74.5691
,,,3615.25135,-74.9691
,,,3620.18348,-76.9691
,,,3625.11561,-67.7691
,,,3630.04774,-74.5691
,,,3634.97987,-80.9691
,,,3639.912,-79.7691
,,,3644.84413,-80.9691
,,,3649.77626,-79.7691
,,,3654.70839,-79.7691
,,,3659.64052,-72.1691
,,,3664.57265,-72.9691
,,,3669.50478,-68.1691
,,,3674.43691,-66.9691
,,,3679.36904,-80.9691
,,,3684.30117,-74.5691
,,,3689.2333,-80.9691
,,,3694.16543,-74.9691
,,,3699.09756,-69.7691
,,,3704.02969,-71.7691
,,,3708.96182,-77.7691
,,,3713.89395,-76.9691
,,,3718.82608,-80.9691
,,,3723.75821,-74.5691
,,,3728.69034,-75.7691
,,,3733.62247,-77.7691
,,,3738.5546,-79.7691
,,,3743.48673,-80.9691
,,,3748.41886,-80.9691
,,,3753.35099,-80.9691
,,,3758.28312,-80.9691
,,,3763.21525,-77.7691
,,,3768.14738,-79.7691
,,,3773.07951,-79.7691
,,,3778.01164,-80.9691
,,,3782.94377,-77.3691
,,,3787.8759,-75.7691
,,,3792.80803,-69.7691
,,,3797.74016,-75.7691
,,,3802.67229,-72.1691
,,,3807.60442,-72.9691
,,,3812.53655,-73.7691
,,,3817.46868,-76.9691
,,,3822.40081,-70.9691
,,,3827.33294,-70.9691
,,,3832.26507,-74.5691
,,,3837.1972,-77.3691
,,,3842.12933,-74.5691
,,,3847.06146,-71.7691
,,,3851.99359,-72.9691
,,,3856.92572,-74.5691
,,,3861.85785,-69.7691
,,,3866.78998,-74.5691
,,,3871.72211,-75.7691
,,,3876.65424,-80.9691
,,,3881.58637,-80.9691
,,,3886.5185,-75.7691
,,,3891.45063,-75.7691
,,,3896.38276,-79.7691
,,,3901.31489,-79.7691
,,,3906.24702,-75.7691
,,,3911.17915,-80.9691
,,,3916.11128,-79.7691
,,,3921.04341,-70.9691
,,,3925.97554,-74.5691
,,,3930.90767,-79.7691
,,,3935.8398,-79.7691
,,,3940.77193,-80.9691
,,,3945.70406,-75.7691
,,,3950.63619,-72.1691
,,,3955.56832,-76.9691
,,,3960.50045,-79.7691
,,,3965.43258,-77.7691
,,,3970.36471,-74.5691
,,,3975.29684,-75.7691
,,,3980.22897,-77.7691
,,,3985.1611,-76.9691
,,,3990.09323,-76.9691
,,,3995.02536,-75.7691
,,,3999.95749,-77.7691
,,,4004.88962,-74.9691
,,,4009.82175,-79.7691
,,,4014.75388,-79.7691
,,,4019.68601,-75.7691
,,,4024.61814,-74.5691
,,,4029.55027,-79.7691
,,,4034.4824,-80.9691
,,,4039.41453,-76.9691
,,,4044.34666,-80.9691
,,,4049.27879,-80.9691
,,,4054.21092,-79.7691
,,,4059.14305,-79.7691
,,,4064.07518,-74.5691
,,,4069.00731,-74.5691
,,,4073.93944,-79.7691
,,,4078.87157,-80.9691
,,,4083.8037,-72.9691
,,,4088.73583,-74.9691
,,,4093.66796,-80.9691
,,,4098.60009,-77.7691
,,,4103.53222,-74.5691
,,,4108.46435,-79.7691
,,,4113.39648,-77.7691
,,,4118.32861,-79.7691
,,,4123.26074,-79.7691
,,,4128.19287,-79.7691
,,,4133.125,-77.7691
,,,4138.05713,-76.9691
,,,4142.98926,-70.9691
,,,4147.92139,-71.3691
,,,4152.85352,-79.7691
,,,4157.78565,-74.9691
,,,4162.71778,-80.9691
,,,4167.64991,-77.7691
,,,4172.58204,-72.9691
,,,4177.51417,-77.7691
,,,4182.4463,-75.7691
,,,4187.37843,-77.7691
,,,4192.31056,-76.9691
,,,4197.24269,-74.5691
,,,4202.17482,-79.7691
,,,4207.10695,-80.9691
,,,4212.03908,-79.7691
,,,4216.97121,-74.5691
,,,4221.90334,-71.3691
,,,4226.83547,-73.7691
,,,4231.7676,-77.3691
,,,4236.69973,-80.9691
,,,4241.63186,-80.9691
,,,4246.56399,-74.5691
,,,4251.49612,-71.7691
,,,4256.42825,-69.3691
,,,4261.36038,-69.7691
,,,4266.29251,-77.7691
,,,4271.22464,-77.3691
,,,4276.15677,-73.7691
,,,4281.0889,-75.7691
,,,4286.02103,-80.9691
,,,4290.95316,-80.9691
,,,4295.88529,-75.7691
,,,4300.81742,-76.9691
